[{
  "firstName": "Иван",
  "lastName": "Иванов",
  "address": "г.Москва, ул. Алиева,2",
  "phoneNumber": "499 123-1234"
},
 {
  "firstName": "Петр",
  "lastName": "Смирнов",
  "address": "г.Санкт-Петербург, ул. Ростовская,10",
  "phoneNumber": "812 123-1234"
},
{
  "firstName": "Семен",
  "lastName": "Сидоров",
  "address": "г.Петразаводск, ул. Ленина,12",
  "phoneNumber": "8912 123-1234"
},
{
  "firstName": "Илья",
  "lastName": "Самарин",
  "address": "г.Балашов, ул. Промышленная,8",
  "phoneNumber": "812 456-1456"
}
]